[sbuforum.com/index.html]
[backblue.gif]
[fade.gif]
[index.html]
[sbuforum.com/index.html]
[sbuforum.com/forum/discussion.html]
[sbuforum.com/event.html]
[sbuforum.com/forum/discussion.html]
[sbuforum.com/forum/pickup.html]
[sbuforum.com/carpool.html]
[sbuforum.com/forum/housing.html]
[sbuforum.com/event.html]
[sbuforum.com/forum/housing.html]
[sbuforum.com/forum/buy-sell.html]
[sbuforum.com/forum/buy-sell.html]
[sbuforum.com/signin.html]
[sbuforum.com/forum/pickup.html]
[sbuforum.com/car.html]
[sbuforum.com/forum/discussion/index.html]
[sbuforum.com/forum/housing/index.html]
[sbuforum.com/forum/buy-sell/index.html]
[sbuforum.com/carpool.html]
[sbuforum.com/car.html]
[sbuforum.com/event/59a71fee421aa94db5ab6140.html]
[sbuforum.com/forum/pickup/index.html]
[sbuforum.com/signin.html]
[sbuforum.com/forum/discussion/index.html]
[sbuforum.com/forum/housing/index.html]
[sbuforum.com/forum/buy-sell/index.html]
[sbuforum.com/carpool/59bf123d421aa92795c4684a.html]
[sbuforum.com/carpool/59c29b0a421aa954b6e8090c.html]
[sbuforum.com/carpool/59bfe567421aa9546fb10799.html]
[sbuforum.com/carpool/59c13e55421aa9546a685cdf.html]
[sbuforum.com/forum/pickup/index.html]
[sbuforum.com/event/59a71fee421aa94db5ab6140.html]
[sbuforum.com/carpool/59c34b1a421aa9546bdd6cea.html]
[sbuforum.com/page/findjobs.html]
[sbuforum.com/page/freeservices.html]
[sbuforum.com/page/rate-landlord.html]
[sbuforum.com/carpool/59bfe567421aa9546fb10799.html]
[sbuforum.com/carpool/59bf123d421aa92795c4684a.html]
[sbuforum.com/imgproxy650e.jpg]
[sbuforum.com/imgproxy1810.jpg]
[sbuforum.com/imgproxy491b.jpg]
[sbuforum.com/page/lianbang.html]
[sbuforum.com/carpool/59c29b0a421aa954b6e8090c.html]
[sbuforum.com/imgproxyd227.jpg]
[sbuforum.com/carpool/59c13e55421aa9546a685cdf.html]
[sbuforum.com/carpool/59c34b1a421aa9546bdd6cea.html]
[sbuforum.com/imgproxy13ac.jpg]
[sbuforum.com/page/findjobs.html]
[sbuforum.com/forum/discussion4658.html]
[sbuforum.com/forum/discussion9ba9.html]
[sbuforum.com/forum/discussionfdb0.html]
[sbuforum.com/page/freeservices.html]
[sbuforum.com/forum/discussionaf4d.html]
[sbuforum.com/forum/discussion9683.html]
[sbuforum.com/page/rate-landlord.html]
[sbuforum.com/page/lianbang.html]
[sbuforum.com/forum/discussion4658.html]
[sbuforum.com/forum/discussion9ba9.html]
[sbuforum.com/forum/housing4658.html]
[sbuforum.com/forum/housing9ba9.html]
[sbuforum.com/forum/housingfdb0.html]
[sbuforum.com/forum/housingaf4d.html]
[sbuforum.com/forum/discussionfdb0.html]
[sbuforum.com/forum/discussionaf4d.html]
[sbuforum.com/forum/housing9852.html]
[sbuforum.com/forum/buy-sell4658.html]
[sbuforum.com/forum/buy-sell9ba9.html]
[sbuforum.com/forum/buy-sellfdb0.html]
[sbuforum.com/forum/discussion9683.html]
[sbuforum.com/forum/housing4658.html]
[sbuforum.com/forum/buy-sellaf4d.html]
[sbuforum.com/forum/buy-sellbcc5.html]
[sbuforum.com/forum/pickup4658.html]
[sbuforum.com/forum/pickup9ba9.html]
[sbuforum.com/forum/housing9ba9.html]
[sbuforum.com/forum/housingfdb0.html]
[sbuforum.com/forum/pickupfdb0.html]
[sbuforum.com/forum/pickupaf4d.html]
[sbuforum.com/forum/pickupce37.html]
[sbuforum.com/carpool/59b2bec5421aa95435ebda9b.html]
[sbuforum.com/forum/housingaf4d.html]
[sbuforum.com/forum/housing9852.html]
[sbuforum.com/carpool/59c3376f421aa95476093979.html]
[sbuforum.com/car4658.html]
[sbuforum.com/car9ba9.html]
[sbuforum.com/carfdb0.html]
[sbuforum.com/forum/buy-sell4658.html]
[sbuforum.com/forum/buy-sell9ba9.html]
[sbuforum.com/caraf4d.html]
[sbuforum.com/car0b08.html]
[sbuforum.com/forum/discussion/index4658.html]
[sbuforum.com/forum/discussion/index9ba9.html]
[sbuforum.com/forum/buy-sellfdb0.html]
[sbuforum.com/forum/buy-sellaf4d.html]
[sbuforum.com/forum/discussion/indexfdb0.html]
[sbuforum.com/forum/discussion/indexaf4d.html]
[sbuforum.com/forum/discussion/index9683.html]
[sbuforum.com/forum/housing/index4658.html]
[sbuforum.com/forum/buy-sellbcc5.html]
[sbuforum.com/forum/pickup4658.html]
[sbuforum.com/forum/housing/index9ba9.html]
[sbuforum.com/forum/housing/indexfdb0.html]
[sbuforum.com/forum/housing/indexaf4d.html]
[sbuforum.com/forum/housing/index9852.html]
[sbuforum.com/forum/pickup9ba9.html]
[sbuforum.com/forum/pickupfdb0.html]
[sbuforum.com/forum/buy-sell/index4658.html]
[sbuforum.com/forum/buy-sell/index9ba9.html]
[sbuforum.com/forum/buy-sell/indexfdb0.html]
[sbuforum.com/forum/buy-sell/indexaf4d.html]
[sbuforum.com/forum/pickupaf4d.html]
[sbuforum.com/forum/pickupce37.html]
[sbuforum.com/forum/buy-sell/indexbcc5.html]
[sbuforum.com/forum/pickup/index4658.html]
[sbuforum.com/forum/pickup/index9ba9.html]
[sbuforum.com/forum/pickup/indexfdb0.html]
[sbuforum.com/carpool/59b2bec5421aa95435ebda9b.html]
[sbuforum.com/carpool/59c3376f421aa95476093979.html]
[sbuforum.com/forum/pickup/indexaf4d.html]
[sbuforum.com/forum/pickup/indexce37.html]
[sbuforum.com/page/qinglong.html]
[sbuforum.com/page/query-rental-permit.html]
[sbuforum.com/car4658.html]
[sbuforum.com/car9ba9.html]
[sbuforum.com/car2679.html]
[sbuforum.com/carfdb0.html]
[sbuforum.com/forum/discussion2679.html]
[sbuforum.com/forum/discussionc575.html]
[sbuforum.com/carc575.html]
[sbuforum.com/forum/discussion235c.html]
[sbuforum.com/caraf4d.html]
[sbuforum.com/car235c.html]
[sbuforum.com/car0b08.html]
[sbuforum.com/forum/discussion5c43.html]
[sbuforum.com/carfdfa.html]
[sbuforum.com/forum/discussion/index4658.html]
[sbuforum.com/forum/discussion/index9ba9.html]
[sbuforum.com/forum/discussion5760.html]
[sbuforum.com/forum/discussiona7f1.html]
[sbuforum.com/forum/discussion/indexfdb0.html]
[sbuforum.com/forum/discussion42a7.html]
[sbuforum.com/forum/housing2679.html]
[sbuforum.com/forum/discussion/indexaf4d.html]
[sbuforum.com/forum/discussion/index9683.html]
[sbuforum.com/forum/housingc575.html]
[sbuforum.com/forum/housing235c.html]
[sbuforum.com/forum/housing/index4658.html]
[sbuforum.com/forum/housing839c.html]
[sbuforum.com/forum/housing3ab4.html]
[sbuforum.com/forum/housing/index9ba9.html]
[sbuforum.com/forum/housing/indexfdb0.html]
[sbuforum.com/forum/housing9e80.html]
[sbuforum.com/forum/housing604a.html]
[sbuforum.com/forum/housing/indexaf4d.html]
[sbuforum.com/forum/buy-sell2679.html]
[sbuforum.com/forum/buy-sellc575.html]
[sbuforum.com/forum/housing/index9852.html]
[sbuforum.com/forum/buy-sell/index4658.html]
[sbuforum.com/forum/buy-sell235c.html]
[sbuforum.com/forum/buy-sell556f.html]
[sbuforum.com/forum/buy-sell/index9ba9.html]
[sbuforum.com/forum/buy-sellc693.html]
[sbuforum.com/forum/buy-sell4f45.html]
[sbuforum.com/forum/buy-sell/indexfdb0.html]
[sbuforum.com/forum/buy-sell/indexaf4d.html]
[sbuforum.com/forum/buy-sell9213.html]
[sbuforum.com/forum/pickup2679.html]
[sbuforum.com/forum/buy-sell/indexbcc5.html]
[sbuforum.com/forum/pickupc575.html]
[sbuforum.com/forum/pickup235c.html]
[sbuforum.com/forum/pickup/index4658.html]
[sbuforum.com/forum/pickup/index9ba9.html]
[sbuforum.com/forum/pickup1c8b.html]
[sbuforum.com/forum/pickupfdfa.html]
[sbuforum.com/forum/pickup/indexfdb0.html]
[sbuforum.com/forum/pickup0b08.html]
[sbuforum.com/forum/pickup1448.html]
[sbuforum.com/forum/pickup/indexaf4d.html]
[sbuforum.com/forum/pickup/indexce37.html]
[sbuforum.s3.amazonaws.com/post/img4/1440028723-54d03cdad764e5013760d024.jpg]
[sbuforum.s3.amazonaws.com/post/img1/1439792649-54d03cdad764e5013760d024.7c.delayed]
[sbuforum.com/page/qinglong.html]
[sbuforum.com/ladder/apply.html]
[sbuforum.s3.amazonaws.com/post/img5/1434501868-53250b99d764e556ff41909d.7d.delayed]
[sbuforum.s3.amazonaws.com/post/img4/1434502347-53250b99d764e556ff41909d.png]
[sbuforum.com/page/query-rental-permit.html]
[sbuforum.com/forum/discussion2679.html]
[sbuforum.com/forum/discussionc575.html]
[sbuforum.com/forum/discussionfdfa.html]
[sbuforum.com/forum/discussion235c.html]
[sbuforum.com/forum/discussion0b08.html]
[sbuforum.com/forum/discussion5c43.html]
[sbuforum.com/forum/discussion8c93.html]
[sbuforum.com/forum/discussiona7f1.html]
[sbuforum.com/forum/discussion5760.html]
[sbuforum.com/forum/discussionce37.html]
[sbuforum.com/forum/discussion42a7.html]
[sbuforum.com/forum/housing2679.html]
[sbuforum.com/forum/housingc575.html]
[sbuforum.com/forum/housingfdfa.html]
[sbuforum.com/forum/housing235c.html]
[sbuforum.com/forum/housing839c.html]
[sbuforum.com/forum/housing0b08.html]
[sbuforum.com/forum/housing986f.html]
[sbuforum.com/forum/housing3ab4.html]
[sbuforum.com/forum/housing9e80.html]
[sbuforum.com/forum/housing604a.html]
[sbuforum.com/forum/buy-sell2679.html]
[sbuforum.com/forum/housingfdbd.html]
[sbuforum.com/forum/buy-sellc575.html]
[sbuforum.com/forum/buy-sellfdfa.html]
[sbuforum.com/forum/buy-sell235c.html]
[sbuforum.com/forum/buy-sell556f.html]
[sbuforum.com/forum/buy-sell0b08.html]
[sbuforum.com/forum/buy-sell50be.html]
[sbuforum.com/forum/buy-sellc693.html]
[sbuforum.com/forum/buy-sell4f45.html]
[sbuforum.com/forum/buy-sell9213.html]
[sbuforum.com/forum/pickup2679.html]
[sbuforum.com/forum/pickupc575.html]
[sbuforum.com/forum/pickup235c.html]
[sbuforum.com/forum/pickup1c8b.html]
[sbuforum.com/forum/pickupfdfa.html]
[sbuforum.com/forum/pickup0b08.html]
[sbuforum.com/forum/pickup1448.html]
[sbuforum.com/car2679.html]
[sbuforum.com/carc575.html]
[sbuforum.com/car235c.html]
[sbuforum.com/carfdfa.html]
[sbuforum.com/forum/discussion/index2679.html]
[sbuforum.com/forum/discussion/indexc575.html]
[sbuforum.com/forum/discussion/index235c.html]
[sbuforum.com/forum/buy-sellf84d.html]
[sbuforum.com/forum/discussion/indexfdfa.html]
[sbuforum.com/forum/discussion/index5760.html]
[sbuforum.com/forum/discussion/index0b08.html]
[sbuforum.com/forum/discussion/index42a7.html]
[sbuforum.com/forum/housing/indexc575.html]
[sbuforum.com/forum/discussion/index8c93.html]
[sbuforum.com/forum/housing/index3ab4.html]
[sbuforum.com/forum/housing/indexfdfa.html]
[sbuforum.com/forum/housing/index9e80.html]
[sbuforum.com/forum/housing/index604a.html]
[sbuforum.com/forum/buy-sell/index2679.html]
[sbuforum.com/forum/housing/indexfdbd.html]
[sbuforum.com/forum/housing/index986f.html]
[sbuforum.com/forum/buy-sell/index556f.html]
[sbuforum.com/forum/buy-sell/index4f45.html]
[sbuforum.com/forum/buy-sell/index9213.html]
[sbuforum.com/forum/buy-sell/index50be.html]
[sbuforum.com/forum/pickup/indexc575.html]
[sbuforum.com/forum/pickup/index235c.html]
[sbuforum.com/forum/pickup/index0b08.html]
[sbuforum.com/forum/pickup/index1448.html]
[sbuforum.com/forum/discussionfdfa.html]
[sbuforum.com/forum/discussion1448.html]
[sbuforum.com/forum/discussion0b08.html]
[sbuforum.com/forum/discussion8c93.html]
[sbuforum.com/forum/discussionce37.html]
[sbuforum.com/forum/discussion1c8b.html]
[sbuforum.com/forum/housingfdfa.html]
[sbuforum.com/forum/housing1448.html]
[sbuforum.com/forum/housing0b08.html]
[sbuforum.com/forum/housing1c8b.html]
[sbuforum.com/forum/housing986f.html]
[sbuforum.com/forum/housing85ad.html]
[sbuforum.com/forum/housingfdbd.html]
[sbuforum.com/forum/housingc3e9.html]
[sbuforum.com/forum/buy-sellfdfa.html]
[sbuforum.com/forum/buy-sell1448.html]
[sbuforum.com/forum/buy-sell0b08.html]
[sbuforum.com/forum/buy-sell1c8b.html]
[sbuforum.com/forum/buy-sell50be.html]
[sbuforum.com/forum/buy-sell0adb.html]
[sbuforum.com/forum/buy-sellf84d.html]
[sbuforum.com/forum/discussion/indexfdfa.html]
[sbuforum.com/forum/discussion/index0b08.html]
[sbuforum.com/forum/discussion/index5c43.html]
[sbuforum.com/forum/buy-selld2ce.html]
[sbuforum.com/forum/discussion/index8c93.html]
[sbuforum.com/forum/discussion/index1448.html]
[sbuforum.com/forum/discussion/indexce37.html]
[sbuforum.com/forum/discussion/index1c8b.html]
[sbuforum.com/forum/housing/indexfdfa.html]
[sbuforum.com/forum/housing/index839c.html]
[sbuforum.com/forum/housing/index0b08.html]
[sbuforum.com/forum/housing/index1448.html]
[sbuforum.com/forum/housing/index986f.html]
[sbuforum.com/forum/housing/indexfdbd.html]
[sbuforum.com/forum/buy-sell/indexc575.html]
[sbuforum.com/forum/housing/index85ad.html]
[sbuforum.com/forum/housing/indexc3e9.html]
[sbuforum.com/forum/buy-sell/index50be.html]
[sbuforum.com/forum/buy-sell/indexfdfa.html]
[sbuforum.com/forum/pickup/index2679.html]
[sbuforum.com/forum/pickup/index1c8b.html]
[sbuforum.com/forum/pickup/indexfdfa.html]
[sbuforum.com/forum/discussion1448.html]
[sbuforum.com/forum/discussion1c8b.html]
[sbuforum.com/forum/buy-sell/index0adb.html]
[sbuforum.com/forum/buy-sell/indexf84d.html]
[sbuforum.com/forum/housing1448.html]
[sbuforum.com/forum/housingce37.html]
[sbuforum.com/forum/housing1c8b.html]
[sbuforum.com/forum/housing8c93.html]
[sbuforum.com/forum/housing85ad.html]
[sbuforum.com/forum/housing75a8.html]
[sbuforum.com/forum/housingc3e9.html]
[sbuforum.com/forum/housingc6b6.html]
[sbuforum.com/forum/buy-sell1448.html]
[sbuforum.com/forum/buy-sellce37.html]
[sbuforum.com/forum/buy-sell1c8b.html]
[sbuforum.com/forum/buy-sell8c93.html]
[sbuforum.com/forum/buy-sell0adb.html]
[sbuforum.com/forum/buy-sell75c7.html]
[sbuforum.com/forum/buy-selld2ce.html]
[sbuforum.com/forum/discussion/index1448.html]
[sbuforum.com/forum/discussion/index1c8b.html]
[sbuforum.com/forum/discussion/indexa7f1.html]
[sbuforum.com/forum/discussion/indexce37.html]
[sbuforum.com/forum/housing/index2679.html]
[sbuforum.com/forum/housing/index0b08.html]
[sbuforum.com/forum/housing/index1448.html]
[sbuforum.com/forum/housing/index235c.html]
[sbuforum.com/forum/housing/index85ad.html]
[sbuforum.com/forum/buy-sell5835.html]
[sbuforum.com/forum/housing/indexc3e9.html]
[sbuforum.com/forum/housing/index1c8b.html]
[sbuforum.com/forum/housing/indexce37.html]
[sbuforum.com/forum/buy-sell/indexfdfa.html]
[sbuforum.com/forum/buy-sell/index235c.html]
[sbuforum.com/forum/housing/indexc6b6.html]
[sbuforum.com/forum/buy-sell/indexc693.html]
[sbuforum.com/forum/buy-sell/indexf84d.html]
[sbuforum.com/forum/housing/index75a8.html]
[sbuforum.com/forum/buy-sell/index0adb.html]
[sbuforum.com/forum/buy-sell/index0b08.html]
[sbuforum.com/forum/buy-sell/index1448.html]
[sbuforum.com/forum/buy-sell/indexd2ce.html]
[sbuforum.com/forum/buy-sell/index75c7.html]
[sbuforum.com/forum/housingce37.html]
[sbuforum.com/forum/housinga7f1.html]
[sbuforum.com/forum/housing8c93.html]
[sbuforum.com/forum/housing5760.html]
[sbuforum.com/forum/housing75a8.html]
[sbuforum.com/forum/housing01d7.html]
[sbuforum.com/forum/housingc6b6.html]
[sbuforum.com/forum/housing79a8.html]
[sbuforum.com/forum/buy-sellce37.html]
[sbuforum.com/forum/buy-sella7f1.html]
[sbuforum.com/forum/buy-sell8c93.html]
[sbuforum.com/forum/buy-sell5760.html]
[sbuforum.com/forum/buy-sell75c7.html]
[sbuforum.com/forum/buy-sell7083.html]
[sbuforum.com/forum/buy-sell5835.html]
[sbuforum.com/forum/housing/index1c8b.html]
[sbuforum.com/forum/housing/indexce37.html]
[sbuforum.com/forum/housing/index75a8.html]
[sbuforum.com/forum/buy-sell997f.html]
[sbuforum.com/forum/housing/indexc6b6.html]
[sbuforum.com/forum/housing/indexa7f1.html]
[sbuforum.com/forum/housing/index8c93.html]
[sbuforum.com/forum/housing/index01d7.html]
[sbuforum.com/forum/buy-sell/index0b08.html]
[sbuforum.com/forum/buy-sell/index1448.html]
[sbuforum.com/forum/buy-sell/indexd2ce.html]
[sbuforum.com/forum/housing/index79a8.html]
[sbuforum.com/forum/buy-sell/index75c7.html]
[sbuforum.com/forum/buy-sell/index1c8b.html]
[sbuforum.com/forum/buy-sell/indexce37.html]
[sbuforum.com/forum/buy-sell/index5835.html]
[sbuforum.com/forum/buy-sell/index7083.html]
[sbuforum.com/forum/housinga7f1.html]
[sbuforum.com/forum/housing42a7.html]
[sbuforum.com/forum/housing5760.html]
[sbuforum.com/forum/housing5c43.html]
[sbuforum.com/forum/housing01d7.html]
[sbuforum.com/forum/housing9707.html]
[sbuforum.com/forum/housing79a8.html]
[sbuforum.com/forum/housing212f.html]
[sbuforum.com/forum/buy-sella7f1.html]
[sbuforum.com/forum/buy-sell42a7.html]
[sbuforum.com/forum/buy-sell5760.html]
[sbuforum.com/forum/buy-sell5c43.html]
[sbuforum.com/forum/buy-sell7083.html]
[sbuforum.com/forum/buy-sell6f72.html]
[sbuforum.com/forum/buy-sell997f.html]
[sbuforum.com/forum/housing/index8c93.html]
[sbuforum.com/forum/housing/indexa7f1.html]
[sbuforum.com/forum/housing/index01d7.html]
[sbuforum.com/forum/buy-sell80c3.html]
[sbuforum.com/forum/housing/index79a8.html]
[sbuforum.com/forum/housing/index42a7.html]
[sbuforum.com/forum/housing/index5760.html]
[sbuforum.com/forum/housing/index9707.html]
[sbuforum.com/forum/buy-sell/index1c8b.html]
[sbuforum.com/forum/buy-sell/indexce37.html]
[sbuforum.com/forum/buy-sell/index5835.html]
[sbuforum.com/forum/housing/index212f.html]
[sbuforum.com/forum/buy-sell/index7083.html]
[sbuforum.com/forum/buy-sell/index8c93.html]
[sbuforum.com/forum/buy-sell/indexa7f1.html]
[sbuforum.com/forum/buy-sell/index997f.html]
[sbuforum.com/forum/buy-sell/index6f72.html]
[sbuforum.com/forum/housing42a7.html]
[sbuforum.com/forum/housing9683.html]
[sbuforum.com/forum/housing5c43.html]
[sbuforum.com/forum/housing7537.html]
[sbuforum.com/forum/housing9707.html]
[sbuforum.com/forum/housing3bc2.html]
[sbuforum.com/forum/housing212f.html]
[sbuforum.com/forum/housing152a.html]
[sbuforum.com/forum/buy-sell42a7.html]
[sbuforum.com/forum/buy-sell9683.html]
[sbuforum.com/forum/buy-sell5c43.html]
[sbuforum.com/forum/buy-sell7537.html]
[sbuforum.com/forum/buy-sell6f72.html]
[sbuforum.com/forum/buy-sellbc8f.html]
[sbuforum.com/forum/buy-sell80c3.html]
[sbuforum.com/forum/housing/index5760.html]
[sbuforum.com/forum/housing/index42a7.html]
[sbuforum.com/forum/housing/index9707.html]
[sbuforum.com/forum/buy-sell9907.html]
[sbuforum.com/forum/housing/index212f.html]
[sbuforum.com/forum/housing/index9683.html]
[sbuforum.com/forum/housing/index5c43.html]
[sbuforum.com/forum/housing/index3bc2.html]
[sbuforum.com/forum/buy-sell/index8c93.html]
[sbuforum.com/forum/buy-sell/indexa7f1.html]
[sbuforum.com/forum/buy-sell/index997f.html]
[sbuforum.com/forum/housing/index152a.html]
[sbuforum.com/forum/buy-sell/index6f72.html]
[sbuforum.com/forum/buy-sell/index5760.html]
[sbuforum.com/forum/buy-sell/index42a7.html]
[sbuforum.com/forum/buy-sell/index80c3.html]
[sbuforum.com/forum/buy-sell/indexbc8f.html]
[sbuforum.com/forum/housing9683.html]
[sbuforum.com/forum/housingf62c.html]
[sbuforum.com/forum/housing7537.html]
[sbuforum.com/forum/housinge4a7.html]
[sbuforum.com/forum/housing3bc2.html]
[sbuforum.com/forum/housingb497.html]
[sbuforum.com/forum/housing152a.html]
[sbuforum.com/forum/housinge304.html]
[sbuforum.com/forum/buy-sell9683.html]
[sbuforum.com/forum/buy-sellf62c.html]
[sbuforum.com/forum/buy-sell7537.html]
[sbuforum.com/forum/buy-selle4a7.html]
[sbuforum.com/forum/buy-sellbc8f.html]
[sbuforum.com/forum/buy-sella1f7.html]
[sbuforum.com/forum/buy-sell9907.html]
[sbuforum.com/forum/housing/index5c43.html]
[sbuforum.com/forum/housing/index9683.html]
[sbuforum.com/forum/housing/index3bc2.html]
[sbuforum.com/forum/buy-sell0e9b.html]
[sbuforum.com/forum/housing/index152a.html]
[sbuforum.com/forum/housing/indexf62c.html]
[sbuforum.com/forum/housing/index7537.html]
[sbuforum.com/forum/housing/indexb497.html]
[sbuforum.com/forum/buy-sell/index5760.html]
[sbuforum.com/forum/buy-sell/index42a7.html]
[sbuforum.com/forum/buy-sell/index80c3.html]
[sbuforum.com/forum/housing/indexe304.html]
[sbuforum.com/forum/buy-sell/indexbc8f.html]
[sbuforum.com/forum/buy-sell/index5c43.html]
[sbuforum.com/forum/buy-sell/index9683.html]
[sbuforum.com/forum/buy-sell/index9907.html]
[sbuforum.com/forum/buy-sell/indexa1f7.html]
[sbuforum.com/forum/housingf62c.html]
[sbuforum.com/forum/housing3c09.html]
[sbuforum.com/forum/housinge4a7.html]
[sbuforum.com/forum/housing89ae.html]
[sbuforum.com/forum/housingb497.html]
[sbuforum.com/forum/housing2c5c.html]
[sbuforum.com/forum/housinge304.html]
[sbuforum.com/forum/housing6081.html]
[sbuforum.com/forum/buy-sellf62c.html]
[sbuforum.com/forum/buy-sell3c09.html]
[sbuforum.com/forum/buy-selle4a7.html]
[sbuforum.com/forum/buy-sell89ae.html]
[sbuforum.com/forum/buy-sella1f7.html]
[sbuforum.com/forum/buy-sell61c8.html]
[sbuforum.com/forum/buy-sell0e9b.html]
[sbuforum.com/forum/housing/index7537.html]
[sbuforum.com/forum/housing/indexf62c.html]
[sbuforum.com/forum/housing/indexb497.html]
[sbuforum.com/forum/buy-sell2bc9.html]
[sbuforum.com/forum/housing/indexe304.html]
[sbuforum.com/forum/housing/index3c09.html]
[sbuforum.com/forum/housing/indexe4a7.html]
[sbuforum.com/forum/housing/index2c5c.html]
[sbuforum.com/forum/buy-sell/index5c43.html]
[sbuforum.com/forum/buy-sell/index9683.html]
[sbuforum.com/forum/buy-sell/index9907.html]
[sbuforum.com/forum/housing/index6081.html]
[sbuforum.com/forum/buy-sell/indexa1f7.html]
[sbuforum.com/forum/buy-sell/index7537.html]
[sbuforum.com/forum/buy-sell/indexf62c.html]
[sbuforum.com/forum/buy-sell/index0e9b.html]
[sbuforum.com/forum/buy-sell/index61c8.html]
[sbuforum.com/forum/housing3c09.html]
[sbuforum.com/forum/housing1d82.html]
[sbuforum.com/forum/housing89ae.html]
[sbuforum.com/forum/housing8c06.html]
[sbuforum.com/forum/housing2c5c.html]
[sbuforum.com/forum/housingd057.html]
[sbuforum.com/forum/housing6081.html]
[sbuforum.com/forum/housing1139.html]
[sbuforum.com/forum/buy-sell3c09.html]
[sbuforum.com/forum/buy-sell1d82.html]
[sbuforum.com/forum/buy-sell89ae.html]
[sbuforum.com/forum/buy-sell8c06.html]
[sbuforum.com/forum/buy-sell61c8.html]
[sbuforum.com/forum/buy-sellcccc.html]
[sbuforum.com/forum/buy-sell2bc9.html]
[sbuforum.com/forum/housing/indexe4a7.html]
[sbuforum.com/forum/housing/index3c09.html]
[sbuforum.com/forum/housing/index2c5c.html]
[sbuforum.com/forum/buy-selldbce.html]
[sbuforum.com/forum/housing/index6081.html]
[sbuforum.com/forum/housing/index1d82.html]
[sbuforum.com/forum/housing/index89ae.html]
[sbuforum.com/forum/housing/indexd057.html]
[sbuforum.com/forum/buy-sell/index7537.html]
[sbuforum.com/forum/buy-sell/indexf62c.html]
[sbuforum.com/forum/buy-sell/index0e9b.html]
[sbuforum.com/forum/housing/index1139.html]
[sbuforum.com/forum/buy-sell/index61c8.html]
[sbuforum.com/forum/buy-sell/indexe4a7.html]
[sbuforum.com/forum/buy-sell/index3c09.html]
[sbuforum.com/forum/buy-sell/index2bc9.html]
[sbuforum.com/forum/buy-sell/indexcccc.html]
[sbuforum.com/forum/housing1d82.html]
[sbuforum.com/forum/housing19d2.html]
[sbuforum.com/forum/housing8c06.html]
[sbuforum.com/forum/housing2459.html]
[sbuforum.com/forum/housingd057.html]
[sbuforum.com/forum/housingd38e.html]
[sbuforum.com/forum/housing1139.html]
[sbuforum.com/forum/housing2059.html]
[sbuforum.com/forum/buy-sell1d82.html]
[sbuforum.com/forum/buy-sell19d2.html]
[sbuforum.com/forum/buy-sell8c06.html]
[sbuforum.com/forum/buy-sell2459.html]
[sbuforum.com/forum/buy-sellcccc.html]
[sbuforum.com/forum/buy-sell6aff.html]
[sbuforum.com/forum/buy-selldbce.html]
[sbuforum.com/forum/housing/index89ae.html]
[sbuforum.com/forum/housing/index1d82.html]
[sbuforum.com/forum/housing/indexd057.html]
[sbuforum.com/forum/buy-sellb9f4.html]
[sbuforum.com/forum/housing/index1139.html]
[sbuforum.com/forum/housing/index19d2.html]
[sbuforum.com/forum/housing/index8c06.html]
[sbuforum.com/forum/housing/indexd38e.html]
[sbuforum.com/forum/buy-sell/indexe4a7.html]
[sbuforum.com/forum/buy-sell/index3c09.html]
[sbuforum.com/forum/buy-sell/index2bc9.html]
[sbuforum.com/forum/housing/index2059.html]
[sbuforum.com/forum/buy-sell/indexcccc.html]
[sbuforum.com/forum/buy-sell/index89ae.html]
[sbuforum.com/forum/buy-sell/index1d82.html]
[sbuforum.com/forum/buy-sell/indexdbce.html]
[sbuforum.com/forum/buy-sell/index6aff.html]
[sbuforum.com/forum/housing19d2.html]
[sbuforum.com/forum/housinge459.html]
[sbuforum.com/forum/housing2459.html]
[sbuforum.com/forum/housing219f.html]
[sbuforum.com/forum/housingd38e.html]
[sbuforum.com/forum/housingd0e8.html]
[sbuforum.com/forum/housing2059.html]
[sbuforum.com/forum/housingc3db.html]
[sbuforum.com/forum/buy-sell19d2.html]
[sbuforum.com/forum/buy-selle459.html]
[sbuforum.com/forum/buy-sell2459.html]
[sbuforum.com/forum/buy-sell219f.html]
[sbuforum.com/forum/buy-sell6aff.html]
[sbuforum.com/forum/buy-sell25fa.html]
[sbuforum.com/forum/buy-sellb9f4.html]
[sbuforum.com/forum/housing/index8c06.html]
[sbuforum.com/forum/housing/index19d2.html]
[sbuforum.com/forum/housing/indexd38e.html]
[sbuforum.com/forum/buy-sell71c9.html]
[sbuforum.com/forum/housing/index2059.html]
[sbuforum.com/forum/housing/indexe459.html]
[sbuforum.com/forum/housing/index2459.html]
[sbuforum.com/forum/housing/indexd0e8.html]
[sbuforum.com/forum/buy-sell/index89ae.html]
[sbuforum.com/forum/buy-sell/index1d82.html]
[sbuforum.com/forum/buy-sell/indexdbce.html]
[sbuforum.com/forum/housing/indexc3db.html]
[sbuforum.com/forum/buy-sell/index6aff.html]
[sbuforum.com/forum/buy-sell/index8c06.html]
[sbuforum.com/forum/buy-sell/index19d2.html]
[sbuforum.com/forum/buy-sell/indexb9f4.html]
[sbuforum.com/forum/buy-sell/index25fa.html]
[sbuforum.com/forum/housinge459.html]
[sbuforum.com/forum/housingb385.html]
[sbuforum.com/forum/housing219f.html]
[sbuforum.com/forum/housingdcf3.html]
[sbuforum.com/forum/housingd0e8.html]
[sbuforum.com/forum/housing4276.html]
[sbuforum.com/forum/housingc3db.html]
[sbuforum.com/forum/housing843a.html]
[sbuforum.com/forum/buy-selle459.html]
[sbuforum.com/forum/buy-sellb385.html]
[sbuforum.com/forum/buy-sell219f.html]
[sbuforum.com/forum/buy-selldcf3.html]
[sbuforum.com/forum/buy-sell25fa.html]
[sbuforum.com/forum/buy-sell291b.html]
[sbuforum.com/forum/buy-sell71c9.html]
[sbuforum.com/forum/housing/index2459.html]
[sbuforum.com/forum/housing/indexe459.html]
[sbuforum.com/forum/housing/indexd0e8.html]
[sbuforum.com/forum/buy-sell1ace.html]
[sbuforum.com/forum/housing/indexc3db.html]
[sbuforum.com/forum/housing/indexb385.html]
[sbuforum.com/forum/housing/index219f.html]
[sbuforum.com/forum/housing/index4276.html]
[sbuforum.com/forum/buy-sell/index8c06.html]
[sbuforum.com/forum/buy-sell/index19d2.html]
[sbuforum.com/forum/buy-sell/indexb9f4.html]
[sbuforum.com/forum/housing/index843a.html]
[sbuforum.com/forum/buy-sell/index25fa.html]
[sbuforum.com/forum/buy-sell/index2459.html]
[sbuforum.com/forum/buy-sell/indexe459.html]
[sbuforum.com/forum/buy-sell/index71c9.html]
[sbuforum.com/forum/buy-sell/index291b.html]
[sbuforum.com/forum/housingb385.html]
[sbuforum.com/forum/housingfa9c.html]
[sbuforum.com/forum/housingdcf3.html]
[sbuforum.com/forum/housingbd1b.html]
[sbuforum.com/forum/housing4276.html]
[sbuforum.com/forum/housinga6f1.html]
[sbuforum.com/forum/housing843a.html]
[sbuforum.com/forum/housing6b49.html]
[sbuforum.com/forum/buy-sellb385.html]
[sbuforum.com/forum/buy-sellfa9c.html]
[sbuforum.com/forum/buy-selldcf3.html]
[sbuforum.com/forum/buy-sellbd1b.html]
[sbuforum.com/forum/buy-sell291b.html]
[sbuforum.com/forum/buy-sell1afa.html]
[sbuforum.com/forum/buy-sell1ace.html]
[sbuforum.com/forum/housing/index219f.html]
[sbuforum.com/forum/housing/indexb385.html]
[sbuforum.com/forum/housing/index4276.html]
[sbuforum.com/forum/buy-selld298.html]
[sbuforum.com/forum/housing/index843a.html]
[sbuforum.com/forum/housing/indexfa9c.html]
[sbuforum.com/forum/housing/indexdcf3.html]
[sbuforum.com/forum/housing/indexa6f1.html]
[sbuforum.com/forum/buy-sell/index2459.html]
[sbuforum.com/forum/buy-sell/indexe459.html]
[sbuforum.com/forum/buy-sell/index71c9.html]
[sbuforum.com/forum/housing/index6b49.html]
[sbuforum.com/forum/buy-sell/index291b.html]
[sbuforum.com/forum/buy-sell/index219f.html]
[sbuforum.com/forum/buy-sell/indexb385.html]
[sbuforum.com/forum/buy-sell/index1ace.html]
[sbuforum.com/forum/buy-sell/index1afa.html]
[sbuforum.com/forum/housingfa9c.html]
[sbuforum.com/forum/housinge51f.html]
[sbuforum.com/forum/housingbd1b.html]
[sbuforum.com/forum/housinge24e.html]
[sbuforum.com/forum/housinga6f1.html]
[sbuforum.com/forum/housingd7d2.html]
[sbuforum.com/forum/housing6b49.html]
[sbuforum.com/forum/housing54c4.html]
[sbuforum.com/forum/buy-sellfa9c.html]
[sbuforum.com/forum/buy-selle51f.html]
[sbuforum.com/forum/buy-sellbd1b.html]
[sbuforum.com/forum/buy-selle24e.html]
[sbuforum.com/forum/buy-sell1afa.html]
[sbuforum.com/forum/buy-selleeed.html]
[sbuforum.com/forum/buy-selld298.html]
[sbuforum.com/forum/housing/indexdcf3.html]
[sbuforum.com/forum/housing/indexfa9c.html]
[sbuforum.com/forum/housing/indexa6f1.html]
[sbuforum.com/forum/buy-sell3119.html]
[sbuforum.com/forum/housing/index6b49.html]
[sbuforum.com/forum/housing/indexe51f.html]
[sbuforum.com/forum/housing/indexbd1b.html]
[sbuforum.com/forum/housing/indexd7d2.html]
[sbuforum.com/forum/buy-sell/index219f.html]
[sbuforum.com/forum/buy-sell/indexb385.html]
[sbuforum.com/forum/buy-sell/index1ace.html]
[sbuforum.com/forum/housing/index54c4.html]
[sbuforum.com/forum/buy-sell/index1afa.html]
[sbuforum.com/forum/buy-sell/indexdcf3.html]
[sbuforum.com/forum/buy-sell/indexfa9c.html]
[sbuforum.com/forum/buy-sell/indexd298.html]
[sbuforum.com/forum/buy-sell/indexeeed.html]
[sbuforum.com/forum/housinge51f.html]
[sbuforum.com/forum/housing09f5.html]
[sbuforum.com/forum/housinge24e.html]
[sbuforum.com/forum/housingf497.html]
[sbuforum.com/forum/housingd7d2.html]
[sbuforum.com/forum/housingd5b7.html]
[sbuforum.com/forum/housing54c4.html]
[sbuforum.com/forum/housing70d9.html]
[sbuforum.com/forum/buy-selle51f.html]
[sbuforum.com/forum/buy-sell09f5.html]
[sbuforum.com/forum/buy-selle24e.html]
[sbuforum.com/forum/buy-sellf497.html]
[sbuforum.com/forum/buy-selleeed.html]
[sbuforum.com/forum/buy-sell3c8a.html]
[sbuforum.com/forum/buy-sell3119.html]
[sbuforum.com/forum/housing/indexbd1b.html]
[sbuforum.com/forum/housing/indexe51f.html]
[sbuforum.com/forum/housing/indexd7d2.html]
[sbuforum.com/forum/buy-sellb7cd.html]
[sbuforum.com/forum/housing/index54c4.html]
[sbuforum.com/forum/housing/index09f5.html]
[sbuforum.com/forum/housing/indexe24e.html]
[sbuforum.com/forum/housing/indexd5b7.html]
[sbuforum.com/forum/buy-sell/indexdcf3.html]
[sbuforum.com/forum/buy-sell/indexfa9c.html]
[sbuforum.com/forum/buy-sell/indexd298.html]
[sbuforum.com/forum/housing/index70d9.html]
[sbuforum.com/forum/buy-sell/indexeeed.html]
[sbuforum.com/forum/buy-sell/indexbd1b.html]
[sbuforum.com/forum/buy-sell/indexe51f.html]
[sbuforum.com/forum/buy-sell/index3119.html]
[sbuforum.com/forum/buy-sell/index3c8a.html]
[sbuforum.com/forum/housing09f5.html]
[sbuforum.com/forum/housing763c.html]
[sbuforum.com/forum/housingf497.html]
[sbuforum.com/forum/housing8b08.html]
[sbuforum.com/forum/housingd5b7.html]
[sbuforum.com/forum/housingefbf.html]
[sbuforum.com/forum/housing70d9.html]
[sbuforum.com/forum/housinga7d4.html]
[sbuforum.com/forum/buy-sell09f5.html]
[sbuforum.com/forum/buy-sell763c.html]
[sbuforum.com/forum/buy-sellf497.html]
[sbuforum.com/forum/buy-sell8b08.html]
[sbuforum.com/forum/buy-sell3c8a.html]
[sbuforum.com/forum/buy-sellfee1.html]
[sbuforum.com/forum/buy-sellb7cd.html]
[sbuforum.com/forum/housing/indexe24e.html]
[sbuforum.com/forum/housing/index09f5.html]
[sbuforum.com/forum/housing/indexd5b7.html]
[sbuforum.com/forum/buy-sell6c0b.html]
[sbuforum.com/forum/housing/index70d9.html]
[sbuforum.com/forum/housing/index763c.html]
[sbuforum.com/forum/housing/indexefbf.html]
[sbuforum.com/forum/buy-sell/indexbd1b.html]
[sbuforum.com/forum/buy-sell/indexe51f.html]
[sbuforum.com/forum/housing/indexf497.html]
[sbuforum.com/forum/housing/indexa7d4.html]
[sbuforum.com/forum/buy-sell/index3119.html]
[sbuforum.com/forum/buy-sell/index3c8a.html]
[sbuforum.com/forum/buy-sell/indexe24e.html]
[sbuforum.com/forum/buy-sell/index09f5.html]
[sbuforum.com/forum/buy-sell/indexb7cd.html]
[sbuforum.com/forum/buy-sell/indexfee1.html]
[sbuforum.com/forum/housing763c.html]
[sbuforum.com/forum/housingce8a.html]
[sbuforum.com/forum/housing8b08.html]
[sbuforum.com/forum/housing6c2f.html]
[sbuforum.com/forum/housingefbf.html]
[sbuforum.com/forum/housingbdf9.html]
[sbuforum.com/forum/housinga7d4.html]
[sbuforum.com/forum/housingfa89.html]
[sbuforum.com/forum/buy-sell763c.html]
[sbuforum.com/forum/buy-sellce8a.html]
[sbuforum.com/forum/buy-sell8b08.html]
[sbuforum.com/forum/buy-sell6c2f.html]
[sbuforum.com/forum/buy-sellfee1.html]
[sbuforum.com/forum/buy-sellb58e.html]
[sbuforum.com/forum/buy-sell6c0b.html]
[sbuforum.com/forum/housing/indexf497.html]
[sbuforum.com/forum/housing/index763c.html]
[sbuforum.com/forum/housing/indexefbf.html]
[sbuforum.com/forum/buy-sellcd6d.html]
[sbuforum.com/forum/housing/indexa7d4.html]
[sbuforum.com/forum/housing/indexce8a.html]
[sbuforum.com/forum/housing/index8b08.html]
[sbuforum.com/forum/housing/indexbdf9.html]
[sbuforum.com/forum/buy-sell/indexe24e.html]
[sbuforum.com/forum/buy-sell/index09f5.html]
[sbuforum.com/forum/buy-sell/indexb7cd.html]
[sbuforum.com/forum/housing/indexfa89.html]
[sbuforum.com/forum/buy-sell/indexfee1.html]
[sbuforum.com/forum/buy-sell/indexf497.html]
[sbuforum.com/forum/buy-sell/index763c.html]
[sbuforum.com/forum/buy-sell/index6c0b.html]
[sbuforum.com/forum/buy-sell/indexb58e.html]
[sbuforum.com/forum/housingce8a.html]
[sbuforum.com/forum/housing3963.html]
[sbuforum.com/forum/housing6c2f.html]
[sbuforum.com/forum/housing324e.html]
[sbuforum.com/forum/housingbdf9.html]
[sbuforum.com/forum/housingac8b.html]
[sbuforum.com/forum/housingfa89.html]
[sbuforum.com/forum/housing1d0c.html]
[sbuforum.com/forum/buy-sellce8a.html]
[sbuforum.com/forum/buy-sell3963.html]
[sbuforum.com/forum/buy-sell6c2f.html]
[sbuforum.com/forum/buy-sell324e.html]
[sbuforum.com/forum/buy-sellb58e.html]
[sbuforum.com/forum/buy-sell19bd.html]
[sbuforum.com/forum/buy-sellcd6d.html]
[sbuforum.com/forum/housing/index8b08.html]
[sbuforum.com/forum/housing/indexce8a.html]
[sbuforum.com/forum/housing/indexbdf9.html]
[sbuforum.com/forum/buy-sell5f8e.html]
[sbuforum.com/forum/housing/indexfa89.html]
[sbuforum.com/forum/housing/index3963.html]
[sbuforum.com/forum/housing/index6c2f.html]
[sbuforum.com/forum/housing/indexac8b.html]
[sbuforum.com/forum/buy-sell/indexf497.html]
[sbuforum.com/forum/buy-sell/index763c.html]
[sbuforum.com/forum/buy-sell/index6c0b.html]
[sbuforum.com/forum/housing/index1d0c.html]
[sbuforum.com/forum/buy-sell/indexb58e.html]
[sbuforum.com/forum/buy-sell/index8b08.html]
[sbuforum.com/forum/buy-sell/indexce8a.html]
[sbuforum.com/forum/buy-sell/indexcd6d.html]
[sbuforum.com/forum/buy-sell/index19bd.html]
[sbuforum.com/forum/housing3963.html]
[sbuforum.com/forum/housing7251.html]
[sbuforum.com/forum/housing324e.html]
[sbuforum.com/forum/housingcadd.html]
[sbuforum.com/forum/housingac8b.html]
[sbuforum.com/forum/housinga072.html]
[sbuforum.com/forum/housing1d0c.html]
[sbuforum.com/forum/housing233e.html]
[sbuforum.com/forum/buy-sell3963.html]
[sbuforum.com/forum/buy-sell7251.html]
[sbuforum.com/forum/buy-sell324e.html]
[sbuforum.com/forum/buy-sellcadd.html]
[sbuforum.com/forum/buy-sell19bd.html]
[sbuforum.com/forum/buy-sell2815.html]
[sbuforum.com/forum/buy-sell5f8e.html]
[sbuforum.com/forum/housing/index6c2f.html]
[sbuforum.com/forum/housing/index3963.html]
[sbuforum.com/forum/housing/indexac8b.html]
[sbuforum.com/forum/buy-sell65f1.html]
[sbuforum.com/forum/housing/index1d0c.html]
[sbuforum.com/forum/housing/index7251.html]
[sbuforum.com/forum/housing/index324e.html]
[sbuforum.com/forum/housing/indexa072.html]
[sbuforum.com/forum/buy-sell/index8b08.html]
[sbuforum.com/forum/buy-sell/indexce8a.html]
[sbuforum.com/forum/buy-sell/indexcd6d.html]
[sbuforum.com/forum/housing/index233e.html]
[sbuforum.com/forum/buy-sell/index19bd.html]
[sbuforum.com/forum/buy-sell/index6c2f.html]
[sbuforum.com/forum/buy-sell/index3963.html]
[sbuforum.com/forum/buy-sell/index5f8e.html]
[sbuforum.com/forum/buy-sell/index2815.html]
[sbuforum.com/forum/housing7251.html]
[sbuforum.com/forum/housing708f.html]
[sbuforum.com/forum/housingcadd.html]
[sbuforum.com/forum/housing060d.html]
[sbuforum.com/forum/housinga072.html]
[sbuforum.com/forum/housingc11b.html]
[sbuforum.com/forum/housing233e.html]
[sbuforum.com/forum/housing2ed8.html]
[sbuforum.com/forum/buy-sell7251.html]
[sbuforum.com/forum/buy-sell708f.html]
[sbuforum.com/forum/buy-sellcadd.html]
[sbuforum.com/forum/buy-sell060d.html]
[sbuforum.com/forum/buy-sell2815.html]
[sbuforum.com/forum/buy-sellf631.html]
[sbuforum.com/forum/buy-sell65f1.html]
[sbuforum.com/forum/housing/index324e.html]
[sbuforum.com/forum/housing/index7251.html]
[sbuforum.com/forum/housing/indexa072.html]
[sbuforum.com/forum/buy-sell12c0.html]
[sbuforum.com/forum/housing/index233e.html]
[sbuforum.com/forum/housing/index708f.html]
[sbuforum.com/forum/housing/indexcadd.html]
[sbuforum.com/forum/housing/indexc11b.html]
[sbuforum.com/forum/buy-sell/index6c2f.html]
[sbuforum.com/forum/buy-sell/index3963.html]
[sbuforum.com/forum/buy-sell/index5f8e.html]
[sbuforum.com/forum/housing/index2ed8.html]
[sbuforum.com/forum/buy-sell/index2815.html]
[sbuforum.com/forum/buy-sell/index324e.html]
[sbuforum.com/forum/buy-sell/index7251.html]
[sbuforum.com/forum/buy-sell/index65f1.html]
[sbuforum.com/forum/buy-sell/indexf631.html]
[sbuforum.com/forum/housing708f.html]
[sbuforum.com/forum/housing89dd.html]
[sbuforum.com/forum/housing060d.html]
[sbuforum.com/forum/housing44a3.html]
[sbuforum.com/forum/housingc11b.html]
[sbuforum.com/forum/housing1c79.html]
[sbuforum.com/forum/housing2ed8.html]
[sbuforum.com/forum/housing2134.html]
[sbuforum.com/forum/buy-sell708f.html]
[sbuforum.com/forum/buy-sell89dd.html]
[sbuforum.com/forum/buy-sell060d.html]
[sbuforum.com/forum/buy-sell44a3.html]
[sbuforum.com/forum/buy-sellf631.html]
[sbuforum.com/forum/buy-sellda81.html]
[sbuforum.com/forum/buy-sell12c0.html]
[sbuforum.com/forum/housing/indexcadd.html]
[sbuforum.com/forum/housing/index708f.html]
[sbuforum.com/forum/housing/indexc11b.html]
[sbuforum.com/forum/buy-sell62e8.html]
[sbuforum.com/forum/housing/index2ed8.html]
[sbuforum.com/forum/housing/index89dd.html]
[sbuforum.com/forum/housing/index060d.html]
[sbuforum.com/forum/housing/index1c79.html]
[sbuforum.com/forum/buy-sell/index324e.html]
[sbuforum.com/forum/buy-sell/index7251.html]
[sbuforum.com/forum/buy-sell/index65f1.html]
[sbuforum.com/forum/housing/index2134.html]
[sbuforum.com/forum/buy-sell/indexf631.html]
[sbuforum.com/forum/buy-sell/indexcadd.html]
[sbuforum.com/forum/buy-sell/index708f.html]
[sbuforum.com/forum/buy-sell/index12c0.html]
[sbuforum.com/forum/buy-sell/indexda81.html]
[sbuforum.com/forum/housing89dd.html]
[sbuforum.com/forum/housing02d1.html]
[sbuforum.com/forum/housing44a3.html]
[sbuforum.com/forum/housing6ee8.html]
[sbuforum.com/forum/housing1c79.html]
[sbuforum.com/forum/housingf58c.html]
[sbuforum.com/forum/housing2134.html]
[sbuforum.com/forum/housing9f60.html]
[sbuforum.com/forum/buy-sell89dd.html]
[sbuforum.com/forum/buy-sell02d1.html]
[sbuforum.com/forum/buy-sell44a3.html]
[sbuforum.com/forum/buy-sell6ee8.html]
[sbuforum.com/forum/buy-sellda81.html]
[sbuforum.com/forum/buy-sell68c2.html]
[sbuforum.com/forum/buy-sell62e8.html]
[sbuforum.com/forum/housing/index060d.html]
[sbuforum.com/forum/housing/index89dd.html]
[sbuforum.com/forum/housing/index1c79.html]
[sbuforum.com/forum/buy-sellce53.html]
[sbuforum.com/forum/housing/index2134.html]
[sbuforum.com/forum/housing/index02d1.html]
[sbuforum.com/forum/housing/index44a3.html]
[sbuforum.com/forum/buy-sell/indexcadd.html]
[sbuforum.com/forum/buy-sell/index708f.html]
[sbuforum.com/forum/housing/index9f60.html]
[sbuforum.com/forum/buy-sell/index12c0.html]
[sbuforum.com/forum/housing/indexf58c.html]
[sbuforum.com/forum/buy-sell/indexda81.html]
[sbuforum.com/forum/buy-sell/index060d.html]
[sbuforum.com/forum/buy-sell/index89dd.html]
[sbuforum.com/forum/buy-sell/index62e8.html]
[sbuforum.com/forum/buy-sell/index68c2.html]
[sbuforum.com/forum/housing02d1.html]
[sbuforum.com/forum/housingbdf9-2.html]
[sbuforum.com/forum/housing6ee8.html]
[sbuforum.com/forum/housing4618.html]
[sbuforum.com/forum/housingf58c.html]
[sbuforum.com/forum/housingafd4.html]
[sbuforum.com/forum/housing9f60.html]
[sbuforum.com/forum/housing1c24.html]
[sbuforum.com/forum/buy-sell02d1.html]
[sbuforum.com/forum/buy-sellbdf9.html]
[sbuforum.com/forum/buy-sell6ee8.html]
[sbuforum.com/forum/buy-sell4618.html]
[sbuforum.com/forum/buy-sell68c2.html]
[sbuforum.com/forum/buy-sellb5a4.html]
[sbuforum.com/forum/buy-sellce53.html]
[sbuforum.com/forum/housing/index44a3.html]
[sbuforum.com/forum/housing/index02d1.html]
[sbuforum.com/forum/housing/indexf58c.html]
[sbuforum.com/forum/buy-sell96d9.html]
[sbuforum.com/forum/housing/index9f60.html]
[sbuforum.com/forum/housing/indexbdf9-2.html]
[sbuforum.com/forum/housing/index6ee8.html]
[sbuforum.com/forum/housing/indexafd4.html]
[sbuforum.com/forum/buy-sell/index060d.html]
[sbuforum.com/forum/buy-sell/index89dd.html]
[sbuforum.com/forum/buy-sell/index62e8.html]
[sbuforum.com/forum/housing/index1c24.html]
[sbuforum.com/forum/buy-sell/index68c2.html]
[sbuforum.com/forum/buy-sell/index44a3.html]
[sbuforum.com/forum/buy-sell/index02d1.html]
[sbuforum.com/forum/buy-sell/indexce53.html]
[sbuforum.com/forum/buy-sell/indexb5a4.html]
[sbuforum.com/forum/housingbdf9-2.html]
[sbuforum.com/forum/housing3a0d.html]
[sbuforum.com/forum/housing4618.html]
[sbuforum.com/forum/housinga27b.html]
[sbuforum.com/forum/housingafd4.html]
[sbuforum.com/forum/housing6c47.html]
[sbuforum.com/forum/housing1c24.html]
[sbuforum.com/forum/housinge225.html]
[sbuforum.com/forum/buy-sellbdf9.html]
[sbuforum.com/forum/buy-sell3a0d.html]
[sbuforum.com/forum/buy-sell4618.html]
[sbuforum.com/forum/buy-sellb5a4.html]
[sbuforum.com/forum/buy-sell96d9.html]
[sbuforum.com/forum/housing/index6ee8.html]
[sbuforum.com/forum/housing/indexbdf9-2.html]
[sbuforum.com/forum/housing/indexafd4.html]
[sbuforum.com/forum/buy-sella27b.html]
[sbuforum.com/forum/housing/index1c24.html]
[sbuforum.com/forum/housing/index4618.html]
[sbuforum.com/forum/housing/index3a0d.html]
[sbuforum.com/forum/housing/index6c47.html]
[sbuforum.com/forum/buy-sell/index44a3.html]
[sbuforum.com/forum/buy-sell/index02d1.html]
[sbuforum.com/forum/buy-sell/indexce53.html]
[sbuforum.com/forum/housing/indexe225.html]
[sbuforum.com/forum/buy-sell/indexb5a4.html]
[sbuforum.com/forum/buy-sell/index6ee8.html]
[sbuforum.com/forum/buy-sell/indexbdf9.html]
[sbuforum.com/forum/buy-sell/index96d9.html]
[sbuforum.com/forum/buy-sell/indexa27b.html]
[sbuforum.com/forum/housing3a0d.html]
[sbuforum.com/forum/housing96d9.html]
[sbuforum.com/forum/housinga27b.html]
[sbuforum.com/forum/housingb5a4.html]
[sbuforum.com/forum/housing6c47.html]
[sbuforum.com/forum/housing1ef1.html]
[sbuforum.com/forum/housinge225.html]
[sbuforum.com/forum/buy-sell3a0d.html]
[sbuforum.com/forum/buy-sella27b.html]
[sbuforum.com/forum/housing/index4618.html]
[sbuforum.com/forum/housing65cb.html]
[sbuforum.com/forum/housing/index3a0d.html]
[sbuforum.com/forum/housing/index6c47.html]
[sbuforum.com/forum/housing/indexe225.html]
[sbuforum.com/forum/housing/indexa27b.html]
[sbuforum.com/forum/buy-sell/index6ee8.html]
[sbuforum.com/forum/housing/index1ef1.html]
[sbuforum.com/forum/housing/index96d9.html]
[sbuforum.com/forum/housing/index65cb.html]
[sbuforum.com/forum/buy-sell/indexbdf9.html]
[sbuforum.com/forum/buy-sell/index96d9.html]
[sbuforum.com/forum/buy-sell/indexa27b.html]
[sbuforum.com/forum/buy-sell/index4618.html]
[sbuforum.com/forum/housing96d9.html]
[sbuforum.com/forum/buy-sell/index3a0d.html]
[sbuforum.com/forum/housingce53.html]
[sbuforum.com/forum/housingb5a4.html]
[sbuforum.com/forum/housing68c2.html]
[sbuforum.com/forum/housing1ef1.html]
[sbuforum.com/forum/housingb1ea.html]
[sbuforum.com/forum/housing65cb.html]
[sbuforum.com/forum/housing/indexa27b.html]
[sbuforum.com/forum/housing/index96d9.html]
[sbuforum.com/forum/housing/index1ef1.html]
[sbuforum.com/forum/housing08fe.html]
[sbuforum.com/forum/housing/index65cb.html]
[sbuforum.com/forum/housing/indexb5a4.html]
[sbuforum.com/forum/housing/indexce53.html]
[sbuforum.com/forum/housing/indexb1ea.html]
[sbuforum.com/forum/buy-sell/index4618.html]
[sbuforum.com/forum/buy-sell/index3a0d.html]
[sbuforum.com/forum/housing/index08fe.html]
[sbuforum.com/forum/housingce53.html]
[sbuforum.com/forum/housing62e8.html]
[sbuforum.com/forum/housing68c2.html]
[sbuforum.com/forum/housingda81.html]
[sbuforum.com/forum/housingb1ea.html]
[sbuforum.com/forum/housing7835.html]
[sbuforum.com/forum/housing08fe.html]
[sbuforum.com/forum/housing/indexb5a4.html]
[sbuforum.com/forum/housing/indexce53.html]
[sbuforum.com/forum/housing/indexb1ea.html]
[sbuforum.com/forum/housing1941.html]
[sbuforum.com/forum/housing/index08fe.html]
[sbuforum.com/forum/housing/index62e8.html]
[sbuforum.com/forum/housing/index68c2.html]
[sbuforum.com/forum/housing/index7835.html]
[sbuforum.com/forum/housing/index1941.html]
[sbuforum.com/forum/housing62e8.html]
[sbuforum.com/forum/housing12c0.html]
[sbuforum.com/forum/housingda81.html]
[sbuforum.com/forum/housingf631.html]
[sbuforum.com/forum/housing7835.html]
[sbuforum.com/forum/housingf165.html]
[sbuforum.com/forum/housing1941.html]
[sbuforum.com/forum/housing/index68c2.html]
[sbuforum.com/forum/housing/index62e8.html]
[sbuforum.com/forum/housing/index7835.html]
[sbuforum.com/forum/housing0c91.html]
[sbuforum.com/forum/housing/index1941.html]
[sbuforum.com/forum/housing/index12c0.html]
[sbuforum.com/forum/housing/indexda81.html]
[sbuforum.com/forum/housing/indexf165.html]
[sbuforum.com/forum/housing/index0c91.html]
[sbuforum.com/forum/housing12c0.html]
[sbuforum.com/forum/housing65f1.html]
[sbuforum.com/forum/housingf631.html]
[sbuforum.com/forum/housing2815.html]
[sbuforum.com/forum/housingf165.html]
[sbuforum.com/forum/housingf9a9.html]
[sbuforum.com/forum/housing0c91.html]
[sbuforum.com/forum/housing/indexda81.html]
[sbuforum.com/forum/housing/index12c0.html]
[sbuforum.com/forum/housing/indexf165.html]
[sbuforum.com/forum/housingf8cb.html]
[sbuforum.com/forum/housing/index0c91.html]
[sbuforum.com/forum/housing/index65f1.html]
[sbuforum.com/forum/housing/indexf631.html]
[sbuforum.com/forum/housing/indexf9a9.html]
[sbuforum.com/forum/housing/indexf8cb.html]
[sbuforum.com/forum/housing65f1.html]
[sbuforum.com/forum/housing5f8e.html]
[sbuforum.com/forum/housing2815.html]
[sbuforum.com/forum/housing19bd.html]
[sbuforum.com/forum/housingf9a9.html]
[sbuforum.com/forum/housingf9f0.html]
[sbuforum.com/forum/housingf8cb.html]
[sbuforum.com/forum/housing/indexf631.html]
[sbuforum.com/forum/housing/index65f1.html]
[sbuforum.com/forum/housing/indexf9a9.html]
[sbuforum.com/forum/housinge0ec.html]
[sbuforum.com/forum/housing/indexf8cb.html]
[sbuforum.com/forum/housing/index5f8e.html]
[sbuforum.com/forum/housing/index2815.html]
[sbuforum.com/forum/housing/indexf9f0.html]
[sbuforum.com/forum/housing/indexe0ec.html]
[sbuforum.com/forum/housing5f8e.html]
[sbuforum.com/forum/housingcd6d.html]
[sbuforum.com/forum/housing19bd.html]
[sbuforum.com/forum/housingb58e.html]
[sbuforum.com/forum/housingf9f0.html]
[sbuforum.com/forum/housingaf9b.html]
[sbuforum.com/forum/housinge0ec.html]
[sbuforum.com/forum/housing/index2815.html]
[sbuforum.com/forum/housing/index5f8e.html]
[sbuforum.com/forum/housing/indexf9f0.html]
[sbuforum.com/forum/housing901a.html]
[sbuforum.com/forum/housing/indexe0ec.html]
[sbuforum.com/forum/housing/indexcd6d.html]
[sbuforum.com/forum/housing/index19bd.html]
[sbuforum.com/forum/housing/indexaf9b.html]
[sbuforum.com/forum/housing/index901a.html]
[sbuforum.com/forum/housingcd6d.html]
[sbuforum.com/forum/housing6c0b.html]
[sbuforum.com/forum/housingb58e.html]
[sbuforum.com/forum/housingfee1.html]
[sbuforum.com/forum/housingaf9b.html]
[sbuforum.com/forum/housing3d6c.html]
[sbuforum.com/forum/housing901a.html]
[sbuforum.com/forum/housing/index19bd.html]
[sbuforum.com/forum/housing/indexcd6d.html]
[sbuforum.com/forum/housing/indexaf9b.html]
[sbuforum.com/forum/housing0b7e.html]
[sbuforum.com/forum/housing/index901a.html]
[sbuforum.com/forum/housing/index6c0b.html]
[sbuforum.com/forum/housing/indexb58e.html]
[sbuforum.com/forum/housing/index3d6c.html]
[sbuforum.com/forum/housing/index0b7e.html]
[sbuforum.com/forum/housing6c0b.html]
[sbuforum.com/forum/housingb7cd.html]
[sbuforum.com/forum/housingfee1.html]
[sbuforum.com/forum/housing3c8a.html]
[sbuforum.com/forum/housing3d6c.html]
[sbuforum.com/forum/housinge2a0.html]
[sbuforum.com/forum/housing0b7e.html]
[sbuforum.com/forum/housing/indexb58e.html]
[sbuforum.com/forum/housing/index6c0b.html]
[sbuforum.com/forum/housing/index3d6c.html]
[sbuforum.com/forum/housing8496.html]
[sbuforum.com/forum/housing/index0b7e.html]
[sbuforum.com/forum/housing/indexb7cd.html]
[sbuforum.com/forum/housing/indexfee1.html]
[sbuforum.com/forum/housing/indexe2a0.html]
[sbuforum.com/forum/housing/index8496.html]
[sbuforum.com/forum/housingb7cd.html]
[sbuforum.com/forum/housing3119.html]
[sbuforum.com/forum/housing3c8a.html]
[sbuforum.com/forum/housingeeed.html]
[sbuforum.com/forum/housinge2a0.html]
[sbuforum.com/forum/housing5d5d.html]
[sbuforum.com/forum/housing8496.html]
[sbuforum.com/forum/housing/indexfee1.html]
[sbuforum.com/forum/housing/indexb7cd.html]
[sbuforum.com/forum/housing/indexe2a0.html]
[sbuforum.com/forum/housingf062.html]
[sbuforum.com/forum/housing/index8496.html]
[sbuforum.com/forum/housing/index3119.html]
[sbuforum.com/forum/housing/index3c8a.html]
[sbuforum.com/forum/housing/index5d5d.html]
[sbuforum.com/forum/housing/indexf062.html]
[sbuforum.com/forum/housing3119.html]
[sbuforum.com/forum/housingd298.html]
[sbuforum.com/forum/housingeeed.html]
[sbuforum.com/forum/housing1afa.html]
[sbuforum.com/forum/housing5d5d.html]
[sbuforum.com/forum/housingd48f.html]
[sbuforum.com/forum/housingf062.html]
[sbuforum.com/forum/housing/index3c8a.html]
[sbuforum.com/forum/housing/index3119.html]
[sbuforum.com/forum/housing/index5d5d.html]
[sbuforum.com/forum/housing10e0.html]
[sbuforum.com/forum/housing/indexf062.html]
[sbuforum.com/forum/housing/indexd298.html]
[sbuforum.com/forum/housing/indexeeed.html]
[sbuforum.com/forum/housing/indexd48f.html]
[sbuforum.com/forum/housing/index10e0.html]
[sbuforum.com/forum/housingd298.html]
[sbuforum.com/forum/housing1ace.html]
[sbuforum.com/forum/housing1afa.html]
[sbuforum.com/forum/housing291b.html]
[sbuforum.com/forum/housingd48f.html]
[sbuforum.com/forum/housing2509.html]
[sbuforum.com/forum/housing10e0.html]
[sbuforum.com/forum/housing/indexeeed.html]
[sbuforum.com/forum/housing/indexd298.html]
[sbuforum.com/forum/housing/indexd48f.html]
[sbuforum.com/forum/housingaae7.html]
[sbuforum.com/forum/housing/index10e0.html]
[sbuforum.com/forum/housing/index1ace.html]
[sbuforum.com/forum/housing/index1afa.html]
[sbuforum.com/forum/housing/index2509.html]
[sbuforum.com/forum/housing/indexaae7.html]
[sbuforum.com/forum/housing1ace.html]
[sbuforum.com/forum/housing71c9.html]
[sbuforum.com/forum/housing291b.html]
[sbuforum.com/forum/housing25fa.html]
[sbuforum.com/forum/housing2509.html]
[sbuforum.com/forum/housing3198.html]
[sbuforum.com/forum/housingaae7.html]
[sbuforum.com/forum/housing/index1afa.html]
[sbuforum.com/forum/housing/index1ace.html]
[sbuforum.com/forum/housing/index2509.html]
[sbuforum.com/forum/housingeb2b.html]
[sbuforum.com/forum/housing/indexaae7.html]
[sbuforum.com/forum/housing/index71c9.html]
[sbuforum.com/forum/housing/index291b.html]
[sbuforum.com/forum/housing/index3198.html]
[sbuforum.com/forum/housing/indexeb2b.html]
[sbuforum.com/forum/housing71c9.html]
[sbuforum.com/forum/housingb9f4.html]
[sbuforum.com/forum/housing25fa.html]
[sbuforum.com/forum/housing6aff.html]
[sbuforum.com/forum/housing3198.html]
[sbuforum.com/forum/housing1b4a.html]
[sbuforum.com/forum/housingeb2b.html]
[sbuforum.com/forum/housing/index291b.html]
[sbuforum.com/forum/housing/index71c9.html]
[sbuforum.com/forum/housing/index3198.html]
[sbuforum.com/forum/housingd2d1.html]
[sbuforum.com/forum/housing/indexeb2b.html]
[sbuforum.com/forum/housing/indexb9f4.html]
[sbuforum.com/forum/housing/index25fa.html]
[sbuforum.com/forum/housing/index1b4a.html]
[sbuforum.com/forum/housing/indexd2d1.html]
[sbuforum.com/forum/housingb9f4.html]
[sbuforum.com/forum/housingdbce.html]
[sbuforum.com/forum/housing6aff.html]
[sbuforum.com/forum/housingcccc.html]
[sbuforum.com/forum/housing1b4a.html]
[sbuforum.com/forum/housing0e14.html]
[sbuforum.com/forum/housingd2d1.html]
[sbuforum.com/forum/housing/index25fa.html]
[sbuforum.com/forum/housing/indexb9f4.html]
[sbuforum.com/forum/housing/index1b4a.html]
[sbuforum.com/forum/housing4808.html]
[sbuforum.com/forum/housing/indexd2d1.html]
[sbuforum.com/forum/housing/indexdbce.html]
[sbuforum.com/forum/housing/index6aff.html]
[sbuforum.com/forum/housing/index4808.html]
[sbuforum.com/forum/housing/index0e14.html]
[sbuforum.com/forum/housingdbce.html]
[sbuforum.com/forum/housing2bc9.html]
[sbuforum.com/forum/housingcccc.html]
[sbuforum.com/forum/housing61c8.html]
[sbuforum.com/forum/housing0e14.html]
[sbuforum.com/forum/housing664c.html]
[sbuforum.com/forum/housing4808.html]
[sbuforum.com/forum/housing/index6aff.html]
[sbuforum.com/forum/housing7c6b.html]
[sbuforum.com/forum/housing/indexdbce.html]
[sbuforum.com/forum/housing/index0e14.html]
[sbuforum.com/forum/housing/index4808.html]
[sbuforum.com/forum/housing/indexcccc.html]
[sbuforum.com/forum/housing/index664c.html]
[sbuforum.com/forum/housing/index2bc9.html]
[sbuforum.com/forum/housing/index7c6b.html]
[sbuforum.com/forum/housing2bc9.html]
[sbuforum.com/forum/housing0e9b.html]
[sbuforum.com/forum/housing61c8.html]
[sbuforum.com/forum/housinga1f7.html]
[sbuforum.com/forum/housing664c.html]
[sbuforum.com/forum/housinge547.html]
[sbuforum.com/forum/housing7c6b.html]
[sbuforum.com/forum/housing/indexcccc.html]
[sbuforum.com/forum/housing/index2bc9.html]
[sbuforum.com/forum/housing/index664c.html]
[sbuforum.com/forum/housingc3aa.html]
[sbuforum.com/forum/housing/index7c6b.html]
[sbuforum.com/forum/housing/index61c8.html]
[sbuforum.com/forum/housing/index0e9b.html]
[sbuforum.com/forum/housing/indexe547.html]
[sbuforum.com/forum/housing/indexc3aa.html]
[sbuforum.com/forum/housing0e9b.html]
[sbuforum.com/forum/housing9907.html]
[sbuforum.com/forum/housinga1f7.html]
[sbuforum.com/forum/housingbc8f.html]
[sbuforum.com/forum/housinge547.html]
[sbuforum.com/forum/housingf80c.html]
[sbuforum.com/forum/housingc3aa.html]
[sbuforum.com/forum/housing/index61c8.html]
[sbuforum.com/forum/housing/index0e9b.html]
[sbuforum.com/forum/housingd1ce.html]
[sbuforum.com/forum/housing/indexe547.html]
[sbuforum.com/forum/housing/indexc3aa.html]
[sbuforum.com/forum/housing/index9907.html]
[sbuforum.com/forum/housing/indexa1f7.html]
[sbuforum.com/forum/housing/indexf80c.html]
[sbuforum.com/forum/housing/indexd1ce.html]
[sbuforum.com/forum/housing9907.html]
[sbuforum.com/forum/housing80c3.html]
[sbuforum.com/forum/housingbc8f.html]
[sbuforum.com/forum/housing6f72.html]
[sbuforum.com/forum/housingf80c.html]
[sbuforum.com/forum/housing1d42.html]
[sbuforum.com/forum/housingd1ce.html]
[sbuforum.com/forum/housing/indexa1f7.html]
[sbuforum.com/forum/housing/index9907.html]
[sbuforum.com/forum/housing/indexf80c.html]
[sbuforum.com/forum/housing956d.html]
[sbuforum.com/forum/housing/indexd1ce.html]
[sbuforum.com/forum/housing/index80c3.html]
[sbuforum.com/forum/housing/indexbc8f.html]
[sbuforum.com/forum/housing/index1d42.html]
[sbuforum.com/forum/housing/index956d.html]
[sbuforum.com/forum/housing80c3.html]
[sbuforum.com/forum/housing997f.html]
[sbuforum.com/forum/housing6f72.html]
[sbuforum.com/forum/housing7083.html]
[sbuforum.com/forum/housing1d42.html]
[sbuforum.com/forum/housing0cda.html]
[sbuforum.com/forum/housing956d.html]
[sbuforum.com/forum/housing/indexbc8f.html]
[sbuforum.com/forum/housing/index80c3.html]
[sbuforum.com/forum/housing/index1d42.html]
[sbuforum.com/forum/housingcf83.html]
[sbuforum.com/forum/housing/index956d.html]
[sbuforum.com/forum/housing/index997f.html]
[sbuforum.com/forum/housing/index6f72.html]
[sbuforum.com/forum/housing/index0cda.html]
[sbuforum.com/forum/housing/indexcf83.html]
[sbuforum.com/forum/housing997f.html]
[sbuforum.com/forum/housing5835.html]
[sbuforum.com/forum/housing7083.html]
[sbuforum.com/forum/housing75c7.html]
[sbuforum.com/forum/housing0cda.html]
[sbuforum.com/forum/housing83ca.html]
[sbuforum.com/forum/housingcf83.html]
[sbuforum.com/forum/housing/index6f72.html]
[sbuforum.com/forum/housing/index997f.html]
[sbuforum.com/forum/housing/index0cda.html]
[sbuforum.com/forum/housing3096.html]
[sbuforum.com/forum/housing/indexcf83.html]
[sbuforum.com/forum/housing/index5835.html]
[sbuforum.com/forum/housing/index7083.html]
[sbuforum.com/forum/housing/index83ca.html]
[sbuforum.com/forum/housing/index3096.html]
[sbuforum.com/forum/housing5835.html]
[sbuforum.com/forum/housingd2ce.html]
[sbuforum.com/forum/housing75c7.html]
[sbuforum.com/forum/housing0adb.html]
[sbuforum.com/forum/housing83ca.html]
[sbuforum.com/forum/housing4fbf.html]
[sbuforum.com/forum/housing3096.html]
[sbuforum.com/forum/housing/index7083.html]
[sbuforum.com/forum/housing/index5835.html]
[sbuforum.com/forum/housing/index83ca.html]
[sbuforum.com/forum/housingfb9c.html]
[sbuforum.com/forum/housing/index3096.html]
[sbuforum.com/forum/housing/indexd2ce.html]
[sbuforum.com/forum/housing/index75c7.html]
[sbuforum.com/forum/housing/index4fbf.html]
[sbuforum.com/forum/housing/indexfb9c.html]
[sbuforum.com/forum/housingd2ce.html]
[sbuforum.com/forum/housingf84d.html]
[sbuforum.com/forum/housing0adb.html]
[sbuforum.com/forum/housing50be.html]
[sbuforum.com/forum/housing4fbf.html]
[sbuforum.com/forum/housing7a72.html]
[sbuforum.com/forum/housingfb9c.html]
[sbuforum.com/forum/housing/index75c7.html]
[sbuforum.com/forum/housing/indexd2ce.html]
[sbuforum.com/forum/housing/index4fbf.html]
[sbuforum.com/forum/housing6386.html]
[sbuforum.com/forum/housing/indexfb9c.html]
[sbuforum.com/forum/housing/indexf84d.html]
[sbuforum.com/forum/housing/index0adb.html]
[sbuforum.com/forum/housing/index7a72.html]
[sbuforum.com/forum/housing/index6386.html]
[sbuforum.com/forum/housingf84d.html]
[sbuforum.com/forum/housingc693.html]
[sbuforum.com/forum/housing50be.html]
[sbuforum.com/forum/housing4f45.html]
[sbuforum.com/forum/housing7a72.html]
[sbuforum.com/forum/housingbb55.html]
[sbuforum.com/forum/housing6386.html]
[sbuforum.com/forum/housing/index0adb.html]
[sbuforum.com/forum/housing/indexf84d.html]
[sbuforum.com/forum/housing/index7a72.html]
[sbuforum.com/forum/housing2d1e.html]
[sbuforum.com/forum/housing/index6386.html]
[sbuforum.com/forum/housing/indexc693.html]
[sbuforum.com/forum/housing/index50be.html]
[sbuforum.com/forum/housing/indexbb55.html]
[sbuforum.com/forum/housing/index2d1e.html]
[sbuforum.com/forum/housingc693.html]
[sbuforum.com/forum/housing9213.html]
[sbuforum.com/forum/housing4f45.html]
[sbuforum.com/forum/housing556f.html]
[sbuforum.com/forum/housingbb55.html]
[sbuforum.com/forum/housingdde8.html]
[sbuforum.com/forum/housing2d1e.html]
[sbuforum.com/forum/housing/index50be.html]
[sbuforum.com/forum/housing/indexc693.html]
[sbuforum.com/forum/housing/indexbb55.html]
[sbuforum.com/forum/housingbcc5.html]
[sbuforum.com/forum/housing/index2d1e.html]
[sbuforum.com/forum/housing/index9213.html]
[sbuforum.com/forum/housing/index4f45.html]
[sbuforum.com/forum/housing/indexdde8.html]
[sbuforum.com/forum/housing9213.html]
[sbuforum.com/forum/housing556f.html]
[sbuforum.com/forum/housingdde8.html]
[sbuforum.com/forum/housingbcc5.html]
[sbuforum.com/forum/housing/index4f45.html]
[sbuforum.com/forum/housing/index9213.html]
[sbuforum.com/forum/housing/indexdde8.html]
[sbuforum.com/forum/housing/indexbcc5.html]
[sbuforum.com/forum/housing/indexbcc5.html]
[sbuforum.com/forum/housing/index556f.html]
[sbuforum.com/forum/housing/index556f.html]
[ivymate.s3.amazonaws.com/crop/img2/59220a56421aa95512a9bea2-1498756905.png]
[s3.amazonaws.com/ivymate/logos/sbuforum-logo1x.png]
[sbuforum.com/static/css/themes/fonts/glyphicons-halflings-regular.eot]
[s3.amazonaws.com/ivymate/logos/sbuforum-logo2x.png]
[sbuforum.com/static/css/themes/fonts/glyphicons-halflings-regulard41d.eot]
[s3.amazonaws.com/sbuforum/guide.png]
[slack-files.com/files-pub/T03B4MGC1-F0C847NHK-3b17e666de/_______________.jpg]
[slack-files.com/files-pub/T03B4MGC1-F0C8J51FD-0f8910d45d/__________________.jpg]
[sbuforum.com/static/css/themes/fonts/glyphicons-halflings-regular.woff]
[sbuforum.com/static/css/themes/redblack/bootstrap.min256c.css]
[cdnjs.cloudflare.com/ajax/libs/font-awesome/4.6.3/fonts/fontawesome-webfont5b62.svg]
[cdnjs.cloudflare.com/ajax/libs/font-awesome/4.6.3/css/font-awesome.min.css]
[s3.amazonaws.com/sbuforum/rent.png]
[s3.amazonaws.com/sbuforum/support/lianbang.png]
[sbuforum.com/imgproxy650e.jpg]
[sbuforum.com/static/images/sprites.png]
[sbuforum.com/static/css/themes/commone04a.css]
[sbuforum.com/static/css/themes/redblack/custom279c.css]
[sbuforum.com/imgproxy1810.jpg]
[sbuforum.com/imgproxy491b.jpg]
[sbuforum.com/static/plugins/colorbox/images/loading.gif]
[s3.amazonaws.com/sbuforum/support/freshgogo-sep.jpg]
[sbuforum.com/static/plugins/colorbox/images/controls.png]
[sbuforum.com/static/plugins/colorbox/colorbox.css]
[sbuforum.com/forum/discussion.html]
[sbuforum.com/forum/discussion.html]
[sbuforum.com/imgproxyd227.jpg]
[sbuforum.com/imgproxy13ac.jpg]
[sbuforum.com/page/findjobs.html]
[sbuforum.com/page/findjobs.html]
[sbuforum.com/page/freeservices.html]
[sbuforum.com/page/freeservices.html]
[sbuforum.com/page/rate-landlord.html]
[sbuforum.com/page/rate-landlord.html]
[sbuforum.com/page/lianbang.html]
[sbuforum.com/page/lianbang.html]
[cdnjs.cloudflare.com/ajax/libs/jquery/2.2.4/jquery.min.js]
[maxcdn.bootstrapcdn.com/bootstrap/3.3.5/js/bootstrap.min.js]
[cdnjs.cloudflare.com/ajax/libs/jquery-noty/2.3.8/packaged/jquery.noty.packaged.min.js]
[s3.amazonaws.com/ivymate/sbuforum/support/westbon3.jpg]
[s3.amazonaws.com/ivymate/sbuforum/account-qrcode.jpg]
[s3.amazonaws.com/ivymate/sbuforum/pn-qrcode.jpg]
[sbuforum.com/static/plugins/localtime/lt.min.js]
[sbuforum.com/static/plugins/cookie/cookie.js]
[sbuforum.com/static/plugins/colorbox/jquery.colorbox-min.js]
[sbuforum.com/static/js/base.min26c3.js]
[sbuforum.com/static/js/notify.min4f32.js]
[sbuforum.com/static/js/post.min49b6.js]
[sbuforum.com/static/js/carpool.min5861.js]
[sbuforum.com/static/js/page.minf1ea.js]
[www.google-analytics.com/analytics.js]
[sbuforum.s3.amazonaws.com/post/img1/1439792649-54d03cdad764e5013760d024.jpg]
[sbuforum.com/forum/housing4658.html]
[sbuforum.com/forum/housing4658.html]
[sbuforum.s3.amazonaws.com/post/img5/1434501868-53250b99d764e556ff41909d.png]
[sbuforum.com/car4658.html]
[sbuforum.com/car4658.html]
[sbuforum.com/static/plugins/freditor/css/froala_editor.min.css]
[sbuforum.com/static/plugins/freditor/css/froala_style.min.css]
[sbuforum.com/static/plugins/freditor/css/plugins.combined.min.css]
[sbuforum.com/page/qinglong.html]
[sbuforum.com/page/qinglong.html]
[ag.ny.gov/sites/default/files/tenants_rights.pdf]
[sbuforum.com/static/css/themes/fonts/glyphicons-halflings-regular.html]
[sbuforum.com/static/css/themes/fonts/glyphicons-halflings-regular-2.html]
[sbuforum.com/static/css/themes/fonts/glyphicons-halflings-regular.svg]
[cdnjs.cloudflare.com/ajax/libs/font-awesome/4.6.3/fonts/fontawesome-webfont5b62.svg]
[sbuforum.com/forum/discussionfdfa.html]
